NES_Urbana_777.sim/sim_1/behav/xsim/rom_test.vcd
$date
   Sat Dec 14 06:07:36 2024
$end
$version
  2022.2
$end
$timescale
  1ps
$end
$scope module ROM_tb $end
$var reg 1 ! clk $end
$var reg 1 " reset $end
$var reg 16 # rom_addr [15:0] $end
$var reg 8 $ dout [7:0] $end
$scope module rom_inst $end
$var wire 1 % clk $end
$var wire 1 & reset $end
$var wire 16 ' rom_addr [15:0] $end
$var reg 8 $ dout [7:0] $end
$var reg 16 ( translated_addr [15:0] $end
$scope begin Block33_2 $end
$var reg 32 ) fd [31:0] $end
$upscope $end
$upscope $end
$scope begin Block37_6 $end
$var reg 32 * i [31:0] $end
$upscope $end
$scope begin Block45_7 $end
$var reg 32 + i [31:0] $end
$upscope $end
$upscope $end
$enddefinitions $end
#0
$dumpvars
0!
1"
b0 #
b0 $
0%
1&
b0 '
b1000000000000000 (
b11111111111111111011000111100000 )
b0 *
b0 +
$end
#5000
1!
1%
#10000
0!
0%
#15000
1!
1%
#20000
0!
0%
#25000
1!
1%
#30000
0!
0%
#35000
1!
1%
#40000
0!
0%
#45000
1!
1%
#50000
0!
0%
#55000
1!
1%
#60000
0!
0%
#65000
1!
1%
#70000
0!
0%
#75000
1!
1%
#80000
0!
0%
#85000
1!
1%
#90000
0!
0%
#95000
1!
1%
#100000
0!
0"
b11 $
0%
0&
#105000
1!
1%
#110000
0!
0%
#115000
1!
1%
#120000
0!
b1000000000000000 #
b1111000 $
0%
b1000000000000000 '
b0 (
#125000
1!
1%
#130000
0!
b1000000000000001 #
b11011000 $
0%
b1000000000000001 '
b1 (
b1 *
#135000
1!
1%
#140000
0!
b1000000000000010 #
b10101001 $
0%
b1000000000000010 '
b10 (
b10 *
#145000
1!
1%
#150000
0!
b1000000000000011 #
b10000 $
0%
b1000000000000011 '
b11 (
b11 *
#155000
1!
1%
#160000
0!
b1000000000000100 #
b10001101 $
0%
b1000000000000100 '
b100 (
b100 *
#165000
1!
1%
#170000
0!
b1000000000000101 #
b0 $
0%
b1000000000000101 '
b101 (
b101 *
#175000
1!
1%
#180000
0!
b1000000000000110 #
b100000 $
0%
b1000000000000110 '
b110 (
b110 *
#185000
1!
1%
#190000
0!
b1000000000000111 #
b10100010 $
0%
b1000000000000111 '
b111 (
b111 *
#195000
1!
1%
#200000
0!
b1000000000001000 #
b11111111 $
0%
b1000000000001000 '
b1000 (
b1000 *
#205000
1!
1%
#210000
0!
b1000000000001001 #
b10011010 $
0%
b1000000000001001 '
b1001 (
b1001 *
#215000
1!
1%
#220000
0!
b1000000000001010 #
b10101101 $
0%
b1000000000001010 '
b1010 (
b1010 *
#225000
1!
1%
#230000
0!
b1000000000001011 #
b10 $
0%
b1000000000001011 '
b1011 (
b1011 *
#235000
1!
1%
#240000
0!
b1000000000001100 #
b100000 $
0%
b1000000000001100 '
b1100 (
b1100 *
#245000
1!
1%
#250000
0!
b1000000000001101 #
b10000 $
0%
b1000000000001101 '
b1101 (
b1101 *
#255000
1!
1%
#260000
0!
b1000000000001110 #
b11111011 $
0%
b1000000000001110 '
b1110 (
b1110 *
#265000
1!
1%
#270000
0!
b1000000000001111 #
b10101101 $
0%
b1000000000001111 '
b1111 (
b1111 *
#275000
1!
1%
#280000
0!
b0 #
b11 $
0%
b0 '
b1000000000000000 (
b10000 *
#285000
1!
1%
#290000
0!
b1 #
b1111 $
0%
b1 '
b1000000000000001 (
b1 +
#295000
1!
1%
#300000
0!
b10 #
b11111 $
0%
b10 '
b1000000000000010 (
b10 +
#305000
1!
1%
#310000
0!
b11 #
0%
b11 '
b1000000000000011 (
b11 +
#315000
1!
1%
#320000
0!
b100 #
b11100 $
0%
b100 '
b1000000000000100 (
b100 +
#325000
1!
1%
#330000
0!
b101 #
b100100 $
0%
b101 '
b1000000000000101 (
b101 +
#335000
1!
1%
#340000
0!
b110 #
b100110 $
0%
b110 '
b1000000000000110 (
b110 +
#345000
1!
1%
#350000
0!
b111 #
b1100110 $
0%
b111 '
b1000000000000111 (
b111 +
#355000
1!
1%
#360000
0!
b1000 #
b0 $
0%
b1000 '
b1000000000001000 (
b1000 +
#365000
1!
1%
#370000
0!
b1001 #
0%
b1001 '
b1000000000001001 (
b1001 +
#375000
1!
1%
#380000
0!
b1010 #
0%
b1010 '
b1000000000001010 (
b1010 +
#385000
1!
1%
#390000
0!
b1011 #
0%
b1011 '
b1000000000001011 (
b1011 +
#395000
1!
1%
#400000
0!
b1100 #
b11111 $
0%
b1100 '
b1000000000001100 (
b1100 +
#405000
1!
1%
#410000
0!
b1101 #
b111111 $
0%
b1101 '
b1000000000001101 (
b1101 +
#415000
1!
1%
#420000
0!
b1110 #
0%
b1110 '
b1000000000001110 (
b1110 +
#425000
1!
1%
#430000
0!
b1111 #
b1111111 $
0%
b1111 '
b1000000000001111 (
b1111 +
#435000
1!
1%
#440000
0!
b1111111111111100 #
b0 $
0%
b1111111111111100 '
b111111111111100 (
b10000 +
#445000
1!
1%
#450000
0!
b1111111111111101 #
b10000000 $
0%
b1111111111111101 '
b111111111111101 (
